Amazon DataSet
…
unique(df$MainCategory)

## [1] "Computers Accessories" "Electronics"           "Musical Instruments"  
## [4] "Office Products"       "Home Kitchen"          "Home Improvement"     
## [7] "Toys Games"            "Car Motorbike"         "Health PersonalCare"

Fix the strings in Sub Category Column

df %>% 
  count(SubCategory)

## # A tibble: 29 x 2
##    SubCategory                                 n
##    <chr>                                   <int>
##  1 Accessories                                14
##  2 Accessories&Peripherals                   381
##  3 Arts&Crafts                                 1
##  4 Cameras&Photography                        16
##  5 CarAccessories                              1
##  6 Components                                  5
##  7 CraftMaterials                              7
##  8 Electrical                                  2
##  9 ExternalDevices&DataStorage                18
## 10 GeneralPurposeBatteries&BatteryChargers    14
## # i 19 more rows
…
Sub Category

#Check the number of products in each sub category
df %>% 
  count(SubCategory, sort = TRUE) 

## # A tibble: 29 x 2
##    SubCategory                        n
##    <chr>                          <int>
##  1 Accessories Peripherals          381
##  2 Kitchen Home Appliances          308
##  3 Home Theater,TV Video            162
##  4 Mobiles Accessories              161
##  5 Heating,Cooling AirQuality       116
##  6 Wearble Technology                76
##  7 Headphones,Earbuds Accessories    66
##  8 Networking Devices                34
##  9 Office Paper Products             27
## 10 External Devices DataStorage      18
## # i 19 more rows
…
